…
summarize within cities to obtain the total number of homicides and the
number of unsolved homicides.

``` r
homicide_df |>
  group_by(city) |>
  summarize(
    total_homicide = n(),
    unsolved_homicide = sum(disposition %in% c("Closed without arrest", "Open/No arrest"))
  )
```

    ## # A tibble: 50 × 3
    ##    city        total_homicide unsolved_homicide
    ##    <chr>                <int>             <int>
    ##  1 Albuquerque            378               146
    ##  2 Atlanta                973               373
    ##  3 Baltimore             2827              1825
    ##  4 Baton Rouge            424               196
    ##  5 Birmingham             800               347
    ##  6 Boston                 614               310
    ##  7 Buffalo                521               319
    ##  8 Charlotte              687               206
    ##  9 Chicago               5535              4073
    ## 10 Cincinnati             694               309
    ## # ℹ 40 more rows
…
